00616353;71456     ;374  ;
00616354;78506     ;374  ;
00616355;35809     ;406  ;
00616356;29630     ;428  ;
00616357;71180     ;374  ;
00616358;13359     ;404  ;
00616359;78493     ;374  ;
00616360;43362     ;374  ;
00616365;71363     ;374  ;
00616366;22974     ;419  ;
00616367;29522     ;428  ;
00616368;48156     ;416  ;
00616369;29541     ;428  ;
00616370;29755     ;428  ;
00616361;34697     ;415  ;
00616362;29783     ;428  ;
00616363;78487     ;374  ;
00616364;29672     ;428  ;
00616371;29633     ;428  ;
00616372;00042     ;428  ;
00616373;55767     ;405  ;
00616374;29729     ;428  ;
00616375;08392     ;417  ;
00616376;29621     ;428  ;
00616377;29508     ;428  ;
00616378;78508     ;374  ;
00616379;8662      ;417  ;
00616380;48369     ;374  ;
00616381;29637     ;428  ;
00616382;63454     ;374  ;
00616383;29529     ;428  ;
00616384;81940     ;416  ;
00616385;29552     ;428  ;
00616386;12485     ;404  ;
00616432;24297     ;413  ;
00616433;57888     ;374  ;
00616434;99360     ;397  ;
00616435;90059     ;410  ;
00616436;34690     ;415  ;
00616437;52122     ;428  ;
00616438;52005     ;415  ;
00616439;60295     ;405  ;
00616191;63475     ;374  ;
00616192;13572     ;417  ;
00616193;71177     ;374  ;
00616194;71214     ;374  ;
00616195;34013     ;374  ;
00616196;69980     ;374  ;
00616197;71206     ;374  ;
00616198;67109     ;417  ;
00616199;35607     ;406  ;
00616200;63755     ;374  ;
00616202;63629     ;374  ;
00616203;13161     ;404  ;
00616204;71188     ;374  ;
00616205;35193     ;406  ;
00616206;13986     ;417  ;
00616207;71202     ;374  ;
00616208;79370     ;412  ;
00616209;13577     ;417  ;
00616210;70053     ;374  ;
00616211;67148     ;417  ;
00616212;67625     ;410  ;
00616214;90103     ;410  ;
00616215;77668     ;415  ;
00616216;36266     ;417  ;
00616217;79425     ;412  ;
00616218;08758     ;417  ;
00616220;69702     ;374  ;
00616221;77074     ;415  ;
00616222;56645     ;412  ;
00616223;90056     ;410  ;
00616282;67424     ;417  ;
00616283;71182     ;374  ;
00616286;36281     ;00417;
00616302;70730     ;00374;
00616303;71185     ;00374;
00616304;71259     ;00374;
00616305;91680     ;00417;
00616306;13632     ;00417;
00616307;79369     ;00412;
00616309;12005     ;00419;
00616310;70144     ;00374;
00616311;14454     ;00417;
00616312;63756     ;00374;
00616313;71333     ;00374;
00616314;09932     ;00396;
00616325;98501     ;00412;
00616326;14488     ;00417;
00616327;67882     ;00410;
00616328;63750     ;00374;
00616329;83850     ;00405;
00616330;67318     ;00417;
00616331;71013     ;00374;
00616332;67001     ;00417;
00616315;77292     ;00415;
00616316;33943     ;00374;
00616317;34746     ;00415;
00616318;05059     ;00405;
00616319;13989     ;00417;
00616320;71184     ;00374;
00616321;91665     ;00417;
00616322;67982     ;00374;
00616323;71289     ;00374;
00616324;13994     ;00417;
00616333;13761     ;00417;
00616334;13156     ;00404;
00616335;71383     ;00374;
00616336;13576     ;00417;
00616337;13333     ;00404;
00616338;79366     ;00412;
00616339;13339     ;00404;
00616340;63743     ;00374;
00616341;91361     ;00417;
00616342;71210     ;00374;
00616343;71200     ;00374;
00616224;63829     ;374  ;
00616225;67350     ;417  ;
00616226;77455     ;415  ;
00616227;08324     ;417  ;
00616228;63777     ;374  ;
00616229;13745     ;417  ;
00616230;13915     ;417  ;
00616231;63892     ;374  ;
00616232;67027     ;417  ;
00616233;67743     ;374  ;
00616234;71168     ;374  ;
00616235;08844     ;417  ;
00616237;13201     ;412  ;
00616238;36405     ;417  ;
00616239;83791     ;405  ;
00616240;36416     ;417  ;
00616241;36417     ;417  ;
00616242;36274     ;417  ;
00616250;13153     ;404  ;
00616252;90054     ;410  ;
00616253;63747     ;374  ;
00616254;13147     ;404  ;
00616255;08847     ;417  ;
00616256;67637     ;410  ;
00616257;71204     ;374  ;
00616249;42799     ;412  ;
00616244;48730     ;374  ;
00616245;71014     ;374  ;
00616246;36376     ;417  ;
00616247;67340     ;417  ;
00616248;63742     ;374  ;
00616259;08086     ;415  ;
00616260;67032     ;417  ;
00616261;67644     ;410  ;
00616262;34913     ;415  ;
00616263;47828     ;404  ;
00616264;63766     ;374  ;
00616265;81965     ;416  ;
00616266;63592     ;374  ;
00616267;67052     ;417  ;
00616268;05699     ;416  ;
00616269;08720     ;417  ;
00616270;67071     ;417  ;
00616271;36462     ;417  ;
00616272;06705     ;417  ;
00616273;85932     ;400  ;
00616274;63796     ;374  ;
00616275;63769     ;374  ;
00616276;77155     ;415  ;
00616277;36471     ;417  ;
00616278;43425     ;374  ;
00616279;93318     ;404  ;
00616280;36488     ;417  ;
00616281;71460     ;404  ;
00616440;29634     ;428  ;
00616441;91897     ;419  ;
00616442;27475     ;416  ;
00616390;42993     ;412  ;
00616391;92813     ;396  ;
00616389;63749     ;374  ;
00616387;35266     ;406  ;
00616388;27086     ;416  ;
00616392;92467     ;419  ;
00616393;79112     ;412  ;
00616394;77358     ;415  ;
00616395;80650     ;408  ;
00616396;29680     ;428  ;
00616397;92157     ;419  ;
00616398;60328     ;405  ;
00616399;79333     ;412  ;
00616400;20897     ;406  ;
00616414;68063     ;374  ;
00616415;67643     ;410  ;
00616416;22976     ;419  ;
00616417;25651     ;416  ;
00616418;79363     ;412  ;
00616419;34750     ;415  ;
00616420;34689     ;415  ;
00616421;71176     ;374  ;
00616429;68132     ;374  ;
00616430;71212     ;374  ;
00616431;78507     ;374  ;
00616422;67634     ;410  ;
00616423;29644     ;428  ;
00616424;91554     ;419  ;
00616425;36249     ;417  ;
00616426;27151     ;416  ;
00616427;00008     ;428  ;
00616428;91999     ;419  ;
00616401;12245     ;419  ;
00616402;13637     ;412  ;
00616403;26046     ;408  ;
00616404;71488     ;374  ;
00616405;71152     ;404  ;
00616406;66485     ;415  ;
00616407;29732     ;428  ;
00616408;34688     ;415  ;
00616409;29620     ;428  ;
00616410;35671     ;406  ;
00616411;255751    ;408  ;
00616412;12547     ;404  ;
00616413;14678     ;412  ;