00615771;0047737   ;00404
00615772;0083882   ;00405
00615774;0043446   ;00374
00615775;0042880   ;00374
00615760;003643    ;00374
00615761;0074372   ;00397
00615763;043178    ;00374
00615751;0083781   ;00405
00615752;0074423   ;00397
00615753;043344    ;00374
00615755;0083886   ;00405
00615746;0005916   ;00405
00615747;0008245   ;00396
00615748;043185    ;00374
00615749;0080254   ;00396
00615750;0033820   ;00374
00615756;0062221   ;00380
00615757;0083824   ;00405
00615758;0083872   ;00405
00615759;0008069   ;00396
00615766;0048432   ;00404
00615767;0008071   ;00396
00615768;043326    ;00374
00615769;0071197   ;00404
00615776;0035073   ;00406
00615777;0043199   ;00374
00615778;0073939   ;00397
00615779;0008058   ;00396
00615743;0083023   ;00405
00615744;043188    ;00374
00615817;025124    ;00408
00615818;005391    ;00392
00615819;028034    ;00405
00615820;013136    ;00404
00615821;025635    ;00408
00615822;024494    ;00380
00615812;005600    ;00392
00615813;048478    ;00388
00615814;008036    ;00396
00615815;048316    ;00404
00615816;006096    ;00405
00615933;067576    ;00410
00615934;067920    ;00410
00615935;043522    ;00374
00615936;048525    ;00374
00615937;048597    ;00374
00615981;067856    ;00410
00615982;067825    ;00410
00615983;080648    ;00408
00615984;047375    ;00410
00615985;067945    ;00410
00615882;067857    ;00410
00615883;047482    ;00410
00615884;048679    ;00374
00615885;048687    ;00374
00615868;025815    ;00410
00615869;025952    ;00410
00615870;048581    ;00374
00615871;067828    ;00410
00615872;048531    ;00374
00615873;067863    ;00410
00615874;067827    ;00410
00615875;040451    ;00374
00615886;067879    ;00410
00615887;008388    ;00382
00615888;067831    ;00410
00615889;048707    ;00374
00615881;043194    ;00374
00615901;013337    ;00404
00615902;043174    ;00374
00615903;067872    ;00410
00615904;067836    ;00410
00615876;048561    ;00374
00615877;048690    ;00374
00615878;067868    ;00410
00615879;005761    ;00392
00615880;067871    ;00410
00615910;067606    ;00410
00615911;067830    ;00410
00615912;007439    ;00406
00615913;074459    ;00397
00615914;013338    ;00404
00615895;004504    ;00408
00615896;067861    ;00410
00615897;047225    ;00410
00615898;025600    ;00410
00615899;048691    ;00374
00615900;048675    ;00374
00615929;047438    ;00410
00615930;034467    ;00374
00615931;048697    ;00374
00615932;048561    ;00374
00615927;067903    ;00410
00615928;046983    ;00410
00615921;047144    ;00410
00615922;033466    ;00374
00615923;046699    ;00410
00615924;067867    ;00410
00615925;083892    ;00405
00615926;067891    ;00410
00615920;005760    ;00405
00615938;067865    ;00410
00615939;043192    ;00374
00615940;055721    ;00405
00615941;043205    ;00374
00615942;004653    ;00408
00615943;067821    ;00410
00615944;089429    ;00406
00615960;006135    ;00392
00615961;067946    ;00410
00615962;047477    ;00410
00615963;047074    ;00410
00615964;080373    ;00408
00615965;046761    ;00410
00615966;025751    ;00410
00615946;067699    ;00410
00615947;046684    ;00410
00615948;028472    ;00408
00615949;048702    ;00374
00615950;033323    ;00374
00615951;067901    ;00410
00615952;028473    ;00408
00615953;055928    ;00387
00615954;085176    ;00392
00615955;077255    ;00406
00615956;046639    ;00410
00615957;048689    ;00374
00615958;035450    ;00406
00615959;048688    ;00374
00615967;080881    ;00408
00615968;011628    ;00374
00615969;048703    ;00374
00615970;035669    ;00406
00615971;005804    ;00405
00615972;046207    ;00400
00615973;023973    ;00374
00615977;067835    ;00410
00615978;013160    ;00404
00615979;067955    ;00410
00615980;028487    ;00408
00615974;008068    ;00396
00615975;047195    ;00410
00615976;067847    ;00410
00615915;084781    ;00404
00615916;008248    ;00396
00615917;046536    ;00410
00615918;008039    ;00396
00615919;005658    ;00392
00615986;067938    ;00410
00615890;080932    ;00408
00615891;048627    ;00374
00615892;067829    ;00410
00615893;067846    ;00410
00615894;055772    ;00405
00615905;067834    ;00410
00615906;080869    ;00408
00615907;067860    ;00410
00615908;048462    ;00374
00615909;048678    ;00374